\relax 
\providecommand\HyperFirstAtBeginDocument{\AtBeginDocument}
\HyperFirstAtBeginDocument{\ifx\hyper@anchor\@undefined
\global\let\oldcontentsline\contentsline
\gdef\contentsline#1#2#3#4{\oldcontentsline{#1}{#2}{#3}}
\global\let\oldnewlabel\newlabel
\gdef\newlabel#1#2{\newlabelxx{#1}#2}
\gdef\newlabelxx#1#2#3#4#5#6{\oldnewlabel{#1}{{#2}{#3}}}
\AtEndDocument{\ifx\hyper@anchor\@undefined
\let\contentsline\oldcontentsline
\let\newlabel\oldnewlabel
\fi}
\fi}
\global\let\hyper@last\relax 
\gdef\HyperFirstAtBeginDocument#1{#1}
\providecommand\HyField@AuxAddToFields[1]{}
\@writefile{toc}{\beamer@endinputifotherversion {3.10pt}}
\@writefile{nav}{\beamer@endinputifotherversion {3.10pt}}
\@writefile{nav}{\headcommand {\slideentry {0}{0}{1}{1/1}{}{0}}}
\@writefile{nav}{\headcommand {\beamer@framepages {1}{1}}}
\@writefile{nav}{\headcommand {\slideentry {0}{0}{2}{2/2}{}{0}}}
\@writefile{nav}{\headcommand {\beamer@framepages {2}{2}}}
\@writefile{toc}{\beamer@sectionintoc {1}{Iterative Algorithms}{3}{0}{1}}
\@writefile{nav}{\headcommand {\sectionentry {1}{Iterative Algorithms}{3}{Iterative Algorithms}{0}}}
\@writefile{nav}{\headcommand {\beamer@sectionpages {1}{2}}}
\@writefile{nav}{\headcommand {\beamer@subsectionpages {1}{2}}}
\@writefile{toc}{\beamer@subsectionintoc {1}{1}{Motivation}{3}{0}{1}}
\@writefile{nav}{\headcommand {\beamer@subsectionentry {0}{1}{1}{3}{Motivation}}\headcommand {\beamer@subsectionpages {3}{2}}}
\@writefile{nav}{\headcommand {\slideentry {1}{1}{1}{3/3}{Motivation}{0}}}
\@writefile{nav}{\headcommand {\beamer@framepages {3}{3}}}
\@writefile{nav}{\headcommand {\slideentry {1}{1}{2}{4/4}{Motivation}{0}}}
\@writefile{nav}{\headcommand {\beamer@framepages {4}{4}}}
\@writefile{nav}{\headcommand {\slideentry {1}{1}{3}{5/5}{Motivation}{0}}}
\@writefile{nav}{\headcommand {\beamer@framepages {5}{5}}}
\@writefile{nav}{\headcommand {\slideentry {1}{1}{4}{6/6}{Motivation}{0}}}
\@writefile{nav}{\headcommand {\beamer@framepages {6}{6}}}
\@writefile{toc}{\beamer@sectionintoc {2}{Steepest Descent}{7}{0}{2}}
\@writefile{nav}{\headcommand {\sectionentry {2}{Steepest Descent}{7}{Steepest Descent}{0}}}
\@writefile{nav}{\headcommand {\beamer@sectionpages {3}{6}}}
\@writefile{nav}{\headcommand {\beamer@subsectionpages {3}{6}}}
\@writefile{toc}{\beamer@subsectionintoc {2}{1}{Description}{7}{0}{2}}
\@writefile{nav}{\headcommand {\beamer@subsectionentry {0}{2}{1}{7}{Description}}\headcommand {\beamer@subsectionpages {7}{6}}}
\@writefile{nav}{\headcommand {\slideentry {2}{1}{1}{7/7}{Description}{0}}}
\@writefile{nav}{\headcommand {\beamer@framepages {7}{7}}}
\@writefile{nav}{\headcommand {\slideentry {2}{1}{2}{8/8}{Description}{0}}}
\@writefile{nav}{\headcommand {\beamer@framepages {8}{8}}}
\@writefile{nav}{\headcommand {\slideentry {2}{1}{3}{9/9}{Description}{0}}}
\@writefile{nav}{\headcommand {\beamer@framepages {9}{9}}}
\@writefile{nav}{\headcommand {\slideentry {2}{1}{4}{10/10}{Description}{0}}}
\@writefile{nav}{\headcommand {\beamer@framepages {10}{10}}}
\@writefile{nav}{\headcommand {\slideentry {2}{1}{5}{11/11}{Description}{0}}}
\@writefile{nav}{\headcommand {\beamer@framepages {11}{11}}}
\@writefile{toc}{\beamer@subsectionintoc {2}{2}{Convergence}{12}{0}{2}}
\@writefile{nav}{\headcommand {\beamer@subsectionentry {0}{2}{2}{12}{Convergence}}\headcommand {\beamer@subsectionpages {7}{11}}}
\@writefile{nav}{\headcommand {\slideentry {2}{2}{1}{12/12}{Convergence}{0}}}
\@writefile{nav}{\headcommand {\beamer@framepages {12}{12}}}
\@writefile{nav}{\headcommand {\slideentry {2}{2}{2}{13/13}{Convergence}{0}}}
\@writefile{nav}{\headcommand {\beamer@framepages {13}{13}}}
\@writefile{nav}{\headcommand {\slideentry {2}{2}{3}{14/14}{Convergence}{0}}}
\@writefile{nav}{\headcommand {\beamer@framepages {14}{14}}}
\@writefile{nav}{\headcommand {\slideentry {2}{2}{4}{15/15}{Convergence}{0}}}
\@writefile{nav}{\headcommand {\beamer@framepages {15}{15}}}
\@writefile{nav}{\headcommand {\slideentry {2}{2}{5}{16/16}{Convergence}{0}}}
\@writefile{nav}{\headcommand {\beamer@framepages {16}{16}}}
\@writefile{toc}{\beamer@sectionintoc {3}{Conjugate Directions}{17}{0}{3}}
\@writefile{nav}{\headcommand {\sectionentry {3}{Conjugate Directions}{17}{Conjugate Directions}{0}}}
\@writefile{nav}{\headcommand {\beamer@sectionpages {7}{16}}}
\@writefile{nav}{\headcommand {\beamer@subsectionpages {12}{16}}}
\@writefile{toc}{\beamer@subsectionintoc {3}{1}{Conjugacy}{17}{0}{3}}
\@writefile{nav}{\headcommand {\beamer@subsectionentry {0}{3}{1}{17}{Conjugacy}}\headcommand {\beamer@subsectionpages {17}{16}}}
\@writefile{nav}{\headcommand {\slideentry {3}{1}{1}{17/17}{Conjugacy}{0}}}
\@writefile{nav}{\headcommand {\beamer@framepages {17}{17}}}
\@writefile{nav}{\headcommand {\slideentry {3}{1}{2}{18/18}{Conjugacy}{0}}}
\@writefile{nav}{\headcommand {\beamer@framepages {18}{18}}}
\@writefile{nav}{\headcommand {\slideentry {3}{1}{3}{19/19}{Conjugacy}{0}}}
\@writefile{nav}{\headcommand {\beamer@framepages {19}{19}}}
\@writefile{nav}{\headcommand {\slideentry {3}{1}{4}{20/20}{Conjugacy}{0}}}
\@writefile{nav}{\headcommand {\beamer@framepages {20}{20}}}
\@writefile{nav}{\headcommand {\slideentry {3}{1}{5}{21/21}{Conjugacy}{0}}}
\@writefile{nav}{\headcommand {\beamer@framepages {21}{21}}}
\@writefile{toc}{\beamer@subsectionintoc {3}{2}{Gram-Schmidt}{22}{0}{3}}
\@writefile{nav}{\headcommand {\beamer@subsectionentry {0}{3}{2}{22}{Gram-Schmidt}}\headcommand {\beamer@subsectionpages {17}{21}}}
\@writefile{nav}{\headcommand {\slideentry {3}{2}{1}{22/22}{Gram-Schmidt}{0}}}
\@writefile{nav}{\headcommand {\beamer@framepages {22}{22}}}
\@writefile{nav}{\headcommand {\slideentry {3}{2}{2}{23/23}{Gram-Schmidt}{0}}}
\@writefile{nav}{\headcommand {\beamer@framepages {23}{23}}}
\@writefile{toc}{\beamer@sectionintoc {4}{Conjugate Gradients}{24}{0}{4}}
\@writefile{nav}{\headcommand {\sectionentry {4}{Conjugate Gradients}{24}{Conjugate Gradients}{0}}}
\@writefile{nav}{\headcommand {\beamer@sectionpages {17}{23}}}
\@writefile{nav}{\headcommand {\beamer@subsectionpages {22}{23}}}
\@writefile{nav}{\headcommand {\slideentry {4}{0}{3}{24/24}{}{0}}}
\@writefile{nav}{\headcommand {\beamer@framepages {24}{24}}}
\@writefile{nav}{\headcommand {\slideentry {4}{0}{4}{25/25}{}{0}}}
\@writefile{nav}{\headcommand {\beamer@framepages {25}{25}}}
\@writefile{nav}{\headcommand {\slideentry {4}{0}{5}{26/26}{}{0}}}
\@writefile{nav}{\headcommand {\beamer@framepages {26}{26}}}
\@writefile{toc}{\beamer@subsectionintoc {4}{1}{Impl. details}{27}{0}{4}}
\@writefile{nav}{\headcommand {\beamer@subsectionentry {0}{4}{1}{27}{Impl. details}}\headcommand {\beamer@subsectionpages {24}{26}}}
\@writefile{nav}{\headcommand {\slideentry {4}{1}{1}{27/27}{Impl. details}{0}}}
\@writefile{nav}{\headcommand {\beamer@framepages {27}{27}}}
\@writefile{nav}{\headcommand {\slideentry {4}{1}{2}{28/28}{Impl. details}{0}}}
\@writefile{nav}{\headcommand {\beamer@framepages {28}{28}}}
\@writefile{toc}{\beamer@sectionintoc {5}{Simulations}{29}{0}{5}}
\@writefile{nav}{\headcommand {\sectionentry {5}{Simulations}{29}{Simulations}{0}}}
\@writefile{nav}{\headcommand {\beamer@sectionpages {24}{28}}}
\@writefile{nav}{\headcommand {\beamer@subsectionpages {27}{28}}}
\@writefile{nav}{\headcommand {\slideentry {5}{0}{3}{29/29}{}{0}}}
\@writefile{nav}{\headcommand {\beamer@framepages {29}{29}}}
\@writefile{nav}{\headcommand {\slideentry {5}{0}{4}{30/30}{}{0}}}
\@writefile{nav}{\headcommand {\beamer@framepages {30}{30}}}
\@writefile{toc}{\beamer@sectionintoc {6}{Conclusion}{31}{0}{6}}
\@writefile{nav}{\headcommand {\sectionentry {6}{Conclusion}{31}{Conclusion}{0}}}
\@writefile{nav}{\headcommand {\beamer@sectionpages {29}{30}}}
\@writefile{nav}{\headcommand {\beamer@subsectionpages {29}{30}}}
\@writefile{nav}{\headcommand {\slideentry {6}{0}{5}{31/31}{}{0}}}
\@writefile{nav}{\headcommand {\beamer@framepages {31}{31}}}
\bibcite{p1}{\hyperlink {beamerbibp1}{Shewchuk, 1994}}
\bibcite{p2}{\hyperlink {beamerbibp2}{Davis, 2011}}
\bibcite{p3}{\hyperlink {beamerbibp3}{Rugis, 2004}}
\@writefile{nav}{\headcommand {\slideentry {6}{0}{6}{32/32}{}{0}}}
\@writefile{nav}{\headcommand {\beamer@framepages {32}{32}}}
\@writefile{nav}{\headcommand {\slideentry {6}{0}{7}{33/33}{}{0}}}
\@writefile{nav}{\headcommand {\beamer@framepages {33}{33}}}
\@writefile{nav}{\headcommand {\beamer@partpages {1}{33}}}
\@writefile{nav}{\headcommand {\beamer@subsectionpages {31}{33}}}
\@writefile{nav}{\headcommand {\beamer@sectionpages {31}{33}}}
\@writefile{nav}{\headcommand {\beamer@documentpages {33}}}
\@writefile{nav}{\headcommand {\def \inserttotalframenumber {33}}}
